INDEX VERSION 1.127+/Users/banana/Desktop/UNIMELB/Y3/S1/SMD/ASSIGNMENTS/ONE/.metadata/.plugins/org.eclipse.jdt.core
1932296773.index
2866962951.index
1476274870.index
1242669869.index
1271342938.index
3589533847.index
2928114023.index
3748870543.index
3323628498.index
3344946283.index
4168895089.index
6796194.index
2600413952.index
2319825317.index
181681470.index
1812935045.index
976068869.index
